v 20110115 2
B 700 700 2700 2500 3 0 0 0 -1 -1 0 -1 -1 -1 -1 -1
P 0 2200 700 2200 1 0 0
{
T -100 2200 5 10 0 0 0 6 1
pintype=input
T 755 2195 5 10 1 1 0 0 1
pinlabel=-IN_A
T 605 2245 5 10 1 1 0 6 1
pinnumber=2
T -100 2200 5 10 0 0 0 6 1
pinseq=2
}
P 4100 2800 3400 2800 1 0 0
{
T 4200 2800 5 10 0 0 180 6 1
pintype=power
T 3345 2795 5 10 1 1 0 6 1
pinlabel=V+
T 3495 2845 5 10 1 1 0 0 1
pinnumber=8
T 4200 2800 5 10 0 0 180 6 1
pinseq=8
}
P 0 2800 700 2800 1 0 0
{
T -100 2800 5 10 0 0 0 6 1
pintype=output
T 755 2795 5 10 1 1 0 0 1
pinlabel=OUT_A
T 605 2845 5 10 1 1 0 6 1
pinnumber=1
T -100 2800 5 10 0 0 0 6 1
pinseq=1
}
P 0 1600 700 1600 1 0 0
{
T -100 1600 5 10 0 0 0 6 1
pintype=input
T 755 1595 5 10 1 1 0 0 1
pinlabel=+IN_A
T 605 1645 5 10 1 1 0 6 1
pinnumber=3
T -100 1600 5 10 0 0 0 6 1
pinseq=3
}
P 4100 2200 3400 2200 1 0 0
{
T 4200 2200 5 10 0 0 0 0 1
pintype=output
T 3345 2195 5 10 1 1 0 6 1
pinlabel=OUT_B
T 3495 2245 5 10 1 1 0 0 1
pinnumber=7
T 4200 2200 5 10 0 0 0 0 1
pinseq=7
}
P 4100 1600 3400 1600 1 0 0
{
T 4200 1600 5 10 0 0 0 0 1
pintype=input
T 3345 1595 5 10 1 1 0 6 1
pinlabel=-IN_B
T 3495 1645 5 10 1 1 0 0 1
pinnumber=6
T 4200 1600 5 10 0 0 0 0 1
pinseq=6
}
P 4100 1000 3400 1000 1 0 0
{
T 4200 1000 5 10 0 0 0 0 1
pintype=input
T 3345 995 5 10 1 1 0 6 1
pinlabel=+IN_B
T 3495 1045 5 10 1 1 0 0 1
pinnumber=5
T 4200 1000 5 10 0 0 0 0 1
pinseq=5
}
P 0 1000 700 1000 1 0 0
{
T -100 1000 5 10 0 0 180 0 1
pintype=power
T 755 995 5 10 1 1 0 0 1
pinlabel=V-
T 605 1045 5 10 1 1 0 6 1
pinnumber=4
T -100 1000 5 10 0 0 180 0 1
pinseq=4
}
T 1800 3300 9 10 1 0 0 0 1
OPA1642
T 3095 3295 8 10 1 1 0 0 1
refdes=U?
L 700 1600 1900 1600 3 0 0 0 -1 -1
L 1900 1600 1900 1900 3 0 0 0 -1 -1
L 2000 1900 1400 1900 3 0 0 0 -1 -1
L 1400 1900 1700 2600 3 0 0 0 -1 -1
L 1700 2600 2000 1900 3 0 0 0 -1 -1
T 1800 1900 9 10 1 0 0 0 1
+
T 1500 1900 9 10 1 0 0 0 1
-
L 1500 1900 1500 1800 3 0 0 0 -1 -1
L 1500 1800 1200 1800 3 0 0 0 -1 -1
L 1200 1800 1200 2200 3 0 0 0 -1 -1
L 1200 2200 700 2200 3 0 0 0 -1 -1
L 1700 2600 1700 2800 3 0 0 0 -1 -1
L 1700 2800 700 2800 3 0 0 0 -1 -1
L 2700 1300 2100 1300 3 0 0 0 -1 -1
L 2100 1300 2400 2000 3 0 0 0 -1 -1
L 2400 2000 2700 1300 3 0 0 0 -1 -1
T 2200 1300 9 10 1 0 0 0 1
+
T 2500 1300 9 10 1 0 0 0 1
-
L 3400 1000 2300 1000 3 0 0 0 -1 -1
L 2300 1000 2300 1300 3 0 0 0 -1 -1
L 2500 1300 2500 1200 3 0 0 0 -1 -1
L 2500 1200 2900 1200 3 0 0 0 -1 -1
L 2900 1200 2900 1600 3 0 0 0 -1 -1
L 2900 1600 3400 1600 3 0 0 0 -1 -1
L 3400 2200 2400 2200 3 0 0 0 -1 -1
L 2400 2200 2400 2000 3 0 0 0 -1 -1
