v 20110115 2
T 54100 49600 9 24 1 0 0 0 1
Oscillator
C 53200 44800 1 0 0 LM311.sym
{
T 56295 47495 5 10 1 1 0 0 1
refdes=U1
}
C 52900 46600 1 0 0 gnd-1.sym
N 53000 47000 53200 47000 4
N 53000 47000 53000 46900 4
C 52900 44800 1 0 0 gnd-1.sym
N 53000 45200 53200 45200 4
N 53000 45200 53000 45100 4
C 57300 47100 1 0 0 vdd-1.sym
N 57500 47000 57300 47000 4
N 57500 47000 57500 47100 4
N 52600 46400 53200 46400 4
N 52600 46400 52600 48000 4
N 52400 48000 54600 48000 4
C 55500 48100 1 180 0 resistor-1.sym
{
T 55200 47700 5 10 0 0 180 0 1
device=RESISTOR
T 54900 47700 5 10 1 1 0 0 1
refdes=R4
T 55300 48300 5 10 1 1 180 0 1
value=22k
}
N 55500 48000 58000 48000 4
N 58000 44100 58000 48200 4
N 58000 46400 57300 46400 4
C 51800 48500 1 270 0 pot-2.sym
{
T 52700 47700 5 10 0 0 270 0 1
device=VARIABLE_RESISTOR
T 51300 47800 5 10 1 1 0 0 1
refdes=R2
T 53300 47700 5 10 0 0 270 0 1
footprint=none
T 51400 48000 5 10 1 1 0 0 1
value=10k
}
T 49700 48100 9 10 1 0 0 0 1
Duty-Cycle Adjust
N 58000 47100 59100 47100 4
{
T 58300 47100 5 10 1 1 0 0 1
value=Vsquare
}
C 55800 38700 1 0 0 LF353.sym
{
T 58895 41995 5 10 1 1 0 0 1
refdes=U2
}
C 55400 39200 1 0 0 gnd-1.sym
N 55500 39700 55800 39700 4
N 55500 39700 55500 39500 4
C 59900 41600 1 0 0 vdd-1.sym
N 59900 41500 60400 41500 4
N 60100 41500 60100 41600 4
C 54900 41000 1 90 0 capacitor-1.sym
{
T 54200 41200 5 10 0 0 90 0 1
device=CAPACITOR
T 54500 41300 5 10 1 1 180 0 1
refdes=C3
T 54000 41200 5 10 0 0 90 0 1
symversion=0.1
T 54800 41100 5 10 1 1 0 0 1
value=100 pF
}
C 53900 41000 1 90 0 resistor-1.sym
{
T 53500 41300 5 10 0 0 90 0 1
device=RESISTOR
T 53600 41700 5 10 1 1 180 0 1
refdes=R10
T 53900 41000 5 10 1 1 0 0 1
value=1M
}
N 53800 40900 53800 41000 4
N 53000 40900 55800 40900 4
N 54700 40900 54700 41000 4
N 55800 41500 55500 41500 4
N 55500 41500 55500 42000 4
N 52700 42000 55500 42000 4
N 53800 41900 53800 42000 4
N 54700 42000 54700 41900 4
N 53000 39700 52200 39700 4
{
T 52300 39700 5 10 1 1 0 0 1
netname=Vosc
}
C 52700 42200 1 180 0 capacitor-1.sym
{
T 52500 41500 5 10 0 0 180 0 1
device=CAPACITOR
T 51900 41700 5 10 1 1 0 0 1
refdes=C2
T 52500 41300 5 10 0 0 180 0 1
symversion=0.1
T 51700 42100 5 10 1 1 0 0 1
value=1 uF
}
C 50100 40200 1 270 0 pot-2.sym
{
T 51000 39400 5 10 0 0 270 0 1
device=VARIABLE_RESISTOR
T 49700 39700 5 10 1 1 0 0 1
refdes=R7
T 51600 39400 5 10 0 0 270 0 1
footprint=none
T 49700 39900 5 10 1 1 0 0 1
value=10k
}
C 50100 41200 1 270 0 resistor-1.sym
{
T 50500 40900 5 10 0 0 270 0 1
device=RESISTOR
T 50600 40800 5 10 1 1 180 0 1
refdes=R6
T 49900 40700 5 10 1 1 0 0 1
value=1k
}
C 50100 37900 1 0 0 gnd-1.sym
C 53100 39900 1 90 0 resistor-1.sym
{
T 52700 40200 5 10 0 0 90 0 1
device=RESISTOR
T 52800 40600 5 10 1 1 180 0 1
refdes=R11
T 53200 40300 5 10 1 1 0 0 1
value=3.9k
}
N 53000 40800 53000 40900 4
N 53000 39700 53000 39900 4
C 54100 39200 1 270 0 pot-2.sym
{
T 55000 38400 5 10 0 0 270 0 1
device=VARIABLE_RESISTOR
T 53600 38900 5 10 1 1 0 0 1
refdes=R13
T 55600 38400 5 10 0 0 270 0 1
footprint=none
T 53700 38700 5 10 1 1 0 0 1
value=10k
}
C 54300 39300 1 90 0 resistor-1.sym
{
T 53900 39600 5 10 0 0 90 0 1
device=RESISTOR
T 54000 40000 5 10 1 1 180 0 1
refdes=R12
T 53600 39700 5 10 1 1 0 0 1
value=100k
}
N 54200 39300 54200 39200 4
C 54000 40300 1 0 0 vdd-1.sym
N 54200 40300 54200 40200 4
N 54700 38700 55000 38700 4
N 55000 38400 55000 40300 4
N 55000 40300 55800 40300 4
C 54300 37300 1 90 0 resistor-1.sym
{
T 53900 37600 5 10 0 0 90 0 1
device=RESISTOR
T 54000 38000 5 10 1 1 180 0 1
refdes=R14
T 53700 37600 5 10 1 1 0 0 1
value=100k
}
N 54200 38300 54200 38200 4
C 54500 36800 1 0 0 gnd-1.sym
N 54600 37100 54600 37200 4
C 55200 37500 1 90 0 capacitor-1.sym
{
T 54500 37700 5 10 0 0 90 0 1
device=CAPACITOR
T 54800 37800 5 10 1 1 180 0 1
refdes=C4
T 54300 37700 5 10 0 0 90 0 1
symversion=0.1
T 55100 37600 5 10 1 1 0 0 1
value=100 nF
}
N 55000 37500 55000 37200 4
N 54200 37200 55000 37200 4
N 54200 37200 54200 37300 4
C 50100 39200 1 270 0 resistor-1.sym
{
T 50500 38900 5 10 0 0 270 0 1
device=RESISTOR
T 50600 38800 5 10 1 1 180 0 1
refdes=R9
T 49900 38700 5 10 1 1 0 0 1
value=1k
}
N 50200 38200 50200 38300 4
C 50000 41300 1 0 0 vdd-1.sym
N 50200 41300 50200 41200 4
N 50200 40200 50200 40300 4
N 50200 39300 50200 39200 4
N 51800 42000 49000 42000 4
{
T 49700 42000 5 10 1 1 0 0 1
netname=Vtriangle
}
N 50700 39700 51200 39700 4
N 51200 39700 51200 42000 4
T 51800 38400 9 10 1 0 0 0 1
Triangle Waveform Adjust
T 48300 39400 9 10 1 0 0 0 1
Triangle Bias Adjust
T 52800 42600 9 24 1 0 0 0 1
Square -> Triangle Wave
C 58100 48200 1 90 0 resistor-1.sym
{
T 57700 48500 5 10 0 0 90 0 1
device=RESISTOR
T 57800 48900 5 10 1 1 180 0 1
refdes=R5
T 58100 48200 5 10 1 1 0 0 1
value=330
}
C 57800 49200 1 0 0 vdd-1.sym
N 58000 49200 58000 49100 4
C 57300 45900 1 0 0 vdd-1.sym
N 57500 45800 57300 45800 4
N 57500 45200 57500 45900 4
N 57300 45200 57500 45200 4
C 51800 49500 1 270 0 resistor-1.sym
{
T 52200 49200 5 10 0 0 270 0 1
device=RESISTOR
T 51600 48900 5 10 1 1 180 0 1
refdes=R1
T 51400 49000 5 10 1 1 0 0 1
value=10k
}
N 51900 48500 51900 48600 4
C 51700 49600 1 0 0 vdd-1.sym
N 51900 49600 51900 49500 4
C 51800 47500 1 270 0 resistor-1.sym
{
T 52200 47200 5 10 0 0 270 0 1
device=RESISTOR
T 51600 47000 5 10 1 1 180 0 1
refdes=R3
T 51400 47100 5 10 1 1 0 0 1
value=10k
}
N 51900 47500 51900 47600 4
C 51800 46200 1 0 0 gnd-1.sym
N 51900 46500 51900 46600 4
C 55800 44200 1 180 0 resistor-1.sym
{
T 55500 43800 5 10 0 0 180 0 1
device=RESISTOR
T 55200 43800 5 10 1 1 0 0 1
refdes=R8
T 55600 44400 5 10 1 1 180 0 1
value=8.1k
}
N 58000 44100 55800 44100 4
C 52200 44500 1 90 0 capacitor-1.sym
{
T 51500 44700 5 10 0 0 90 0 1
device=CAPACITOR
T 51800 45000 5 10 1 1 180 0 1
refdes=C1
T 51300 44700 5 10 0 0 90 0 1
symversion=0.1
T 51300 44600 5 10 1 1 0 0 1
value=100 pF
}
N 54900 44100 52600 44100 4
N 52600 44100 52600 45800 4
N 52000 45800 53200 45800 4
C 51900 44100 1 0 0 gnd-1.sym
N 52000 44400 52000 44500 4
N 52000 45800 52000 45400 4
C 60200 41300 1 270 0 capacitor-1.sym
{
T 60900 41100 5 10 0 0 270 0 1
device=CAPACITOR
T 60800 40700 5 10 1 1 180 0 1
refdes=C5
T 61100 41100 5 10 0 0 270 0 1
symversion=0.1
T 60300 40700 5 10 1 1 180 0 1
value=100 nF
}
C 60300 40000 1 0 0 gnd-1.sym
N 60400 40300 60400 40400 4
N 60400 41300 60400 41500 4
C 63700 40100 1 0 0 connector3-1.sym
{
T 65500 41000 5 10 0 0 0 0 1
device=CONNECTOR_3
T 63700 41200 5 10 1 1 0 0 1
refdes=CONN1
}
C 65500 39900 1 0 0 gnd-1.sym
N 65600 40200 65600 40300 4
N 65600 40300 65400 40300 4
N 65400 40600 66500 40600 4
{
T 65600 40600 5 10 1 1 0 0 1
netname=Vin_R
}
N 65400 40900 66500 40900 4
{
T 65600 40900 5 10 1 1 0 0 1
netname=Vin_L
}
C 65800 43600 1 180 0 capacitor-1.sym
{
T 65600 42900 5 10 0 0 180 0 1
device=CAPACITOR
T 65000 43100 5 10 1 1 0 0 1
refdes=C7
T 65600 42700 5 10 0 0 180 0 1
symversion=0.1
T 64800 43500 5 10 1 1 0 0 1
value=1 uF
}
C 64600 42300 1 90 0 resistor-1.sym
{
T 64200 42600 5 10 0 0 90 0 1
device=RESISTOR
T 64300 43000 5 10 1 1 180 0 1
refdes=R18
T 64000 42600 5 10 1 1 0 0 1
value=10k
}
C 64600 43600 1 90 0 resistor-1.sym
{
T 64200 43900 5 10 0 0 90 0 1
device=RESISTOR
T 64300 44300 5 10 1 1 180 0 1
refdes=R16
T 64000 43900 5 10 1 1 0 0 1
value=10k
}
C 64400 41900 1 0 0 gnd-1.sym
N 64500 42200 64500 42300 4
C 64300 44600 1 0 0 vdd-1.sym
N 64500 44600 64500 44500 4
N 64900 43400 64500 43400 4
N 64500 43200 64500 43600 4
N 64500 43400 63000 43400 4
{
T 63200 43400 5 10 1 1 0 0 1
netname=Vin_L
}
C 74300 42400 1 90 0 resistor-1.sym
{
T 73900 42700 5 10 0 0 90 0 1
device=RESISTOR
T 74000 43100 5 10 1 1 180 0 1
refdes=R22
T 73700 42700 5 10 1 1 0 0 1
value=10k
}
C 74300 43700 1 90 0 resistor-1.sym
{
T 73900 44000 5 10 0 0 90 0 1
device=RESISTOR
T 74000 44400 5 10 1 1 180 0 1
refdes=R21
T 73700 44000 5 10 1 1 0 0 1
value=10k
}
C 74100 42000 1 0 0 gnd-1.sym
N 74200 42300 74200 42400 4
C 74000 44700 1 0 0 vdd-1.sym
N 74200 44700 74200 44600 4
N 74200 43300 74200 43700 4
N 74200 43500 75300 43500 4
{
T 74600 43600 5 10 1 1 0 0 1
netname=Vin_R
}
C 73900 43700 1 180 0 capacitor-1.sym
{
T 73100 43200 5 10 1 1 0 0 1
refdes=C8
T 72900 43600 5 10 1 1 0 0 1
value=1 uF
T 73700 43000 5 10 0 0 180 0 1
device=CAPACITOR
T 73700 42800 5 10 0 0 180 0 1
symversion=0.1
}
C 67300 42100 1 0 0 LM339.sym
{
T 69995 46495 5 10 1 1 0 0 1
refdes=U3
}
T 68100 47000 9 24 1 0 0 0 1
Modulation
C 66900 45000 1 0 0 vdd-1.sym
N 67300 44900 66900 44900 4
N 67100 44900 67100 45000 4
C 65200 45700 1 90 0 resistor-1.sym
{
T 64800 46000 5 10 0 0 90 0 1
device=RESISTOR
T 64900 46400 5 10 1 1 180 0 1
refdes=R15
T 64700 46000 5 10 1 1 0 0 1
value=1k
}
N 64300 45500 67300 45500 4
{
T 64300 45500 5 10 1 1 0 0 1
netname=Vdrive_L
}
N 65100 45500 65100 45700 4
C 64900 46700 1 0 0 vdd-1.sym
N 65100 46700 65100 46600 4
C 66000 44700 1 0 0 capacitor-1.sym
{
T 66200 45400 5 10 0 0 0 0 1
device=CAPACITOR
T 66600 45000 5 10 1 1 0 0 1
refdes=C6
T 66200 45600 5 10 0 0 0 0 1
symversion=0.1
T 66200 44500 5 10 1 1 0 0 1
value=100 nF
}
C 65600 44500 1 0 0 gnd-1.sym
N 65700 44800 65700 44900 4
N 65700 44900 66000 44900 4
C 67200 46200 1 90 0 resistor-1.sym
{
T 66800 46500 5 10 0 0 90 0 1
device=RESISTOR
T 66900 46900 5 10 1 1 180 0 1
refdes=R17
T 66700 46500 5 10 1 1 0 0 1
value=1k
}
C 66900 47200 1 0 0 vdd-1.sym
N 67100 47200 67100 47100 4
N 67300 46100 65700 46100 4
{
T 65700 46100 5 10 1 1 0 0 1
netname=VdriveBar_L
}
N 67100 46200 67100 46100 4
N 67300 44300 66200 44300 4
{
T 66300 44300 5 10 1 1 0 0 1
netname=Vtriangle
}
N 67300 42500 66200 42500 4
{
T 66300 42500 5 10 1 1 0 0 1
netname=Vtriangle
}
N 66000 43700 67300 43700 4
N 66000 43100 67300 43100 4
C 71100 44500 1 0 0 gnd-1.sym
N 71200 44800 71200 44900 4
N 71200 44900 71000 44900 4
C 71300 46200 1 90 0 resistor-1.sym
{
T 70900 46500 5 10 0 0 90 0 1
device=RESISTOR
T 71000 46900 5 10 1 1 180 0 1
refdes=R19
T 70800 46500 5 10 1 1 0 0 1
value=1k
}
C 71000 47200 1 0 0 vdd-1.sym
N 71200 47200 71200 47100 4
N 71200 46200 71200 46100 4
N 71000 46100 72400 46100 4
{
T 71300 46100 5 10 1 1 0 0 1
netname=VdriveBar_R
}
C 73300 45700 1 90 0 resistor-1.sym
{
T 72900 46000 5 10 0 0 90 0 1
device=RESISTOR
T 73000 46400 5 10 1 1 180 0 1
refdes=R20
T 72800 46000 5 10 1 1 0 0 1
value=1k
}
N 73200 45500 73200 45700 4
C 73000 46700 1 0 0 vdd-1.sym
N 73200 46700 73200 46600 4
N 71000 45500 74500 45500 4
{
T 73600 45500 5 10 1 1 0 0 1
netname=Vdrive_R
}
N 72100 43100 71000 43100 4
{
T 71100 43100 5 10 1 1 0 0 1
netname=Vtriangle
}
N 72100 43700 71000 43700 4
{
T 71100 43700 5 10 1 1 0 0 1
netname=Vtriangle
}
N 71000 44300 72600 44300 4
N 71000 42500 72600 42500 4
C 79500 46400 1 0 0 LM2937.sym
{
T 79800 48200 5 10 0 0 0 0 1
device=LM2937
T 79800 48400 5 10 0 0 0 0 1
footprint=SOT223
T 81000 47600 5 10 1 1 0 0 1
refdes=U4
}
T 79600 48400 9 24 1 0 0 0 1
Speaker Driver
C 81600 47100 1 270 0 capacitor-2.sym
{
T 82300 46900 5 10 0 0 270 0 1
device=POLARIZED_CAPACITOR
T 82100 46500 5 10 1 1 0 0 1
refdes=C10
T 82500 46900 5 10 0 0 270 0 1
symversion=0.1
T 82100 46700 5 10 1 1 0 0 1
value=10 uF
}
C 79000 47100 1 270 0 capacitor-1.sym
{
T 79700 46900 5 10 0 0 270 0 1
device=CAPACITOR
T 79600 46500 5 10 1 1 180 0 1
refdes=C9
T 79900 46900 5 10 0 0 270 0 1
symversion=0.1
T 79100 46500 5 10 1 1 180 0 1
value=100 nF
}
C 79100 45800 1 0 0 gnd-1.sym
N 79200 46100 79200 46200 4
N 79200 47100 79200 47200 4
N 79500 47200 78700 47200 4
C 78500 47400 1 0 0 vdd-1.sym
N 78700 47200 78700 47400 4
N 81500 47200 82700 47200 4
N 81800 47100 81800 47200 4
C 80400 46000 1 0 0 gnd-1.sym
N 80500 46300 80500 46400 4
C 81700 45800 1 0 0 gnd-1.sym
N 81800 46100 81800 46200 4
C 78800 45000 1 0 0 3.3V-plus-1.sym
C 81900 41900 1 0 0 speaker-1.sym
{
T 83900 44400 5 10 0 0 0 0 1
device=SPEAKER
T 82500 43900 5 10 1 1 0 0 1
refdes=SPK_L
}
C 78400 43900 1 0 0 mosfet-with-diode-1.sym
{
T 79300 44400 5 10 0 0 0 0 1
device=NPN_TRANSISTOR
T 79300 44400 5 10 1 1 0 0 1
refdes=Q1
}
C 78400 42700 1 0 0 mosfet-with-diode-1.sym
{
T 79300 43200 5 10 0 0 0 0 1
device=NPN_TRANSISTOR
T 79300 43200 5 10 1 1 0 0 1
refdes=Q2
}
C 78400 40500 1 0 0 mosfet-with-diode-1.sym
{
T 79300 41000 5 10 0 0 0 0 1
device=NPN_TRANSISTOR
T 79300 41000 5 10 1 1 0 0 1
refdes=Q3
}
C 78400 39300 1 0 0 mosfet-with-diode-1.sym
{
T 79300 39800 5 10 0 0 0 0 1
device=NPN_TRANSISTOR
T 79300 39800 5 10 1 1 0 0 1
refdes=Q4
}
C 78800 41600 1 0 0 3.3V-plus-1.sym
C 79900 43700 1 0 0 inductor-1.sym
{
T 80100 44200 5 10 0 0 0 0 1
device=INDUCTOR
T 80100 44000 5 10 1 1 0 0 1
refdes=L1
T 80100 44400 5 10 0 0 0 0 1
symversion=0.1
T 80100 43600 5 10 1 1 0 0 1
value=33 uH
}
C 78900 42300 1 0 0 gnd-1.sym
N 79000 42600 79000 42700 4
C 78900 38900 1 0 0 gnd-1.sym
N 79000 39200 79000 39300 4
N 79000 41600 79000 41500 4
N 79000 40500 79000 40300 4
C 82500 47300 1 0 0 3.3V-plus-1.sym
N 82700 47100 82700 47300 4
C 79900 40300 1 0 0 inductor-1.sym
{
T 80100 40800 5 10 0 0 0 0 1
device=INDUCTOR
T 80100 40600 5 10 1 1 0 0 1
refdes=L2
T 80100 41000 5 10 0 0 0 0 1
symversion=0.1
T 80100 40200 5 10 1 1 0 0 1
value=33 uH
}
C 80700 43600 1 270 0 capacitor-1.sym
{
T 81400 43400 5 10 0 0 270 0 1
device=CAPACITOR
T 81400 43100 5 10 1 1 180 0 1
refdes=C13
T 81600 43400 5 10 0 0 270 0 1
symversion=0.1
T 81700 43300 5 10 1 1 180 0 1
value=220 nF
}
N 79900 40400 79000 40400 4
N 79000 43700 79000 43900 4
N 79900 43800 79000 43800 4
N 79000 45000 79000 44900 4
N 81000 40400 80800 40400 4
N 80900 40200 80900 40400 4
C 80800 38700 1 0 0 gnd-1.sym
N 80900 39000 80900 39300 4
C 80800 42200 1 0 0 gnd-1.sym
N 80900 42500 80900 42700 4
N 80900 43600 80900 43800 4
N 80800 43800 81000 43800 4
N 78400 43200 77300 43200 4
{
T 77400 43200 5 10 1 1 0 0 1
netname=Vdrive_L
}
N 78400 41000 77300 41000 4
{
T 77400 41000 5 10 1 1 0 0 1
netname=Vdrive_R
}
N 78400 44400 77300 44400 4
{
T 77400 44400 5 10 1 1 0 0 1
netname=VdriveBar_L
}
N 78400 39800 77300 39800 4
{
T 77400 39800 5 10 1 1 0 0 1
netname=VdriveBar_R
}
C 80700 40200 1 270 0 capacitor-1.sym
{
T 81400 40000 5 10 0 0 270 0 1
device=CAPACITOR
T 81400 39700 5 10 1 1 180 0 1
refdes=C15
T 81600 40000 5 10 0 0 270 0 1
symversion=0.1
T 81700 39900 5 10 1 1 180 0 1
value=220 nF
}
C 81900 38500 1 0 0 speaker-1.sym
{
T 83900 41000 5 10 0 0 0 0 1
device=SPEAKER
T 82500 40500 5 10 1 1 0 0 1
refdes=SPK_R
}
N 81900 39200 80900 39200 4
N 81900 42600 80900 42600 4
C 82500 47100 1 270 0 capacitor-1.sym
{
T 83200 46900 5 10 0 0 270 0 1
device=CAPACITOR
T 83200 46600 5 10 1 1 180 0 1
refdes=C11
T 83400 46900 5 10 0 0 270 0 1
symversion=0.1
T 83500 46800 5 10 1 1 180 0 1
value=100 nF
}
C 82600 45800 1 0 0 gnd-1.sym
N 82700 46100 82700 46200 4
N 74200 43500 73900 43500 4
N 73000 43500 72600 43500 4
N 72600 42500 72600 44300 4
N 66000 43100 66000 43700 4
N 66000 43400 65800 43400 4
C 81000 40200 1 0 0 capacitor-2.sym
{
T 81200 40900 5 10 0 0 0 0 1
device=POLARIZED_CAPACITOR
T 81900 40800 5 10 1 1 180 0 1
refdes=C14
T 81200 41100 5 10 0 0 0 0 1
symversion=0.1
T 81500 40800 5 10 1 1 180 0 1
value=100 uF
}
C 81000 43600 1 0 0 capacitor-2.sym
{
T 81200 44300 5 10 0 0 0 0 1
device=POLARIZED_CAPACITOR
T 81900 44200 5 10 1 1 180 0 1
refdes=C12
T 81200 44500 5 10 0 0 0 0 1
symversion=0.1
T 81500 44200 5 10 1 1 180 0 1
value=100 uF
}
