v 20110115 2
C 41200 42200 1 0 0 launchpad.sym
{
T 46195 47695 5 10 1 1 0 0 1
refdes=LP1
}
C 47400 46700 1 0 0 gnd-1.sym
N 47500 47000 47500 47100 4
N 47500 47100 47200 47100 4
C 40800 47400 1 0 0 3.3V-plus-1.sym
N 41200 47100 41000 47100 4
N 41000 47100 41000 47400 4
C 31800 42000 1 0 0 MAX3233E.sym
{
T 34500 47800 5 10 1 1 0 0 1
refdes=U1
}
T 42900 48600 9 24 1 0 0 0 1
Launchpad
C 33400 48400 1 0 0 3.3V-plus-1.sym
N 33600 48400 33600 48200 4
C 33500 41700 1 0 0 gnd-1.sym
N 33600 42000 33600 42100 4
C 31400 44000 1 0 0 3.3V-plus-1.sym
N 31800 43500 31600 43500 4
N 31600 43500 31600 44000 4
N 31800 43700 31600 43700 4
C 32400 48100 1 0 0 capacitor-1.sym
{
T 32600 48800 5 10 0 0 0 0 1
device=CAPACITOR
T 32600 48600 5 10 1 1 0 0 1
refdes=C?
T 32600 49000 5 10 0 0 0 0 1
symversion=0.1
T 32400 48100 5 10 1 1 0 0 1
value=0.1uF
}
N 33300 48300 33600 48300 4
C 32000 47900 1 0 0 gnd-1.sym
N 32100 48200 32100 48300 4
N 32100 48300 32400 48300 4
N 41200 46100 40100 46100 4
{
T 40500 46100 5 10 1 1 0 0 1
value=RX
}
N 41200 45600 40100 45600 4
{
T 40500 45600 5 10 1 1 0 0 1
value=TX
}
N 36600 46900 35500 46900 4
{
T 35900 46900 5 10 1 1 0 0 1
value=TX
}
N 36600 46300 35500 46300 4
{
T 35900 46300 5 10 1 1 0 0 1
value=RX
}
C 28700 44800 1 0 0 DB9-1.sym
{
T 29700 47700 5 10 0 0 0 0 1
device=DB9
T 28900 48000 5 10 1 1 0 0 1
refdes=CONN1
}
C 30000 44600 1 0 0 gnd-1.sym
N 30100 45100 29900 45100 4
N 30100 45100 30100 44900 4
N 31800 46900 29900 46900 4
{
T 30700 46900 5 10 1 1 0 0 1
netname=RS232_TX
}
N 31800 46300 29900 46300 4
{
T 30700 46300 5 10 1 1 0 0 1
netname=RS232_RX
}
T 29900 46900 9 10 1 0 0 0 1
Green
T 30000 46300 9 10 1 0 0 0 1
Blue
T 31000 49400 9 24 1 0 0 0 1
RS232 Level Shifter
C 52300 52000 1 0 0 LM2937.sym
{
T 52600 53800 5 10 0 0 0 0 1
device=LM2937
T 53800 53200 5 10 1 1 0 0 1
refdes=U?
}
C 55800 53000 1 0 0 3.3V-plus-1.sym
C 54600 52600 1 0 0 schottky-1.sym
{
T 54922 53272 5 10 0 0 0 0 1
device=DIODE
T 54900 53100 5 10 1 1 0 0 1
refdes=D?
T 54941 53432 5 10 0 1 0 0 1
footprint=SOD80
}
C 54200 52400 1 270 0 capacitor-2.sym
{
T 54900 52200 5 10 0 0 270 0 1
device=POLARIZED_CAPACITOR
T 54700 52200 5 10 1 1 270 0 1
refdes=C?
T 55100 52200 5 10 0 0 270 0 1
symversion=0.1
T 54200 52400 5 10 1 1 0 0 1
value=10 uF
}
C 54300 51100 1 0 0 gnd-1.sym
C 53200 51400 1 0 0 gnd-1.sym
N 53300 51700 53300 52000 4
N 54400 51400 54400 51500 4
C 52200 51700 1 90 0 capacitor-1.sym
{
T 51500 51900 5 10 0 0 90 0 1
device=CAPACITOR
T 51700 51900 5 10 1 1 90 0 1
refdes=C?
T 51300 51900 5 10 0 0 90 0 1
symversion=0.1
T 52200 51700 5 10 1 1 90 0 1
value=0.1uF
}
C 51900 51300 1 0 0 gnd-1.sym
N 52000 51600 52000 51700 4
N 54400 52400 54400 52800 4
N 54300 52800 54600 52800 4
N 52000 52600 52000 52800 4
N 50200 52800 52300 52800 4
{
T 51000 52800 5 10 1 1 0 0 1
netname=+Vin
}
C 48500 52300 1 0 0 connector2-1.sym
{
T 48700 53300 5 10 0 0 0 0 1
device=CONNECTOR_2
T 48500 53100 5 10 1 1 0 0 1
refdes=CONN?
}
C 50300 52100 1 0 0 gnd-1.sym
N 50400 52400 50400 52500 4
N 50400 52500 50200 52500 4
N 55500 52800 56000 52800 4
N 56000 52800 56000 53000 4
T 52600 53800 9 24 1 0 0 0 1
Power
C 46100 58800 1 0 0 23LC1024.sym
{
T 49195 61495 5 10 1 1 0 0 1
refdes=U?
}
T 51500 62200 9 24 1 0 0 0 1
RAM
N 48300 44100 47200 44100 4
{
T 47600 44100 5 10 1 1 0 0 1
value=SCK
}
N 41200 42600 40100 42600 4
{
T 40400 42600 5 10 1 1 0 0 1
value=SIO0_0
}
N 41200 45100 40100 45100 4
{
T 40200 45100 5 10 1 1 0 0 1
value=V_adc_1
}
N 41200 44600 40100 44600 4
{
T 40200 44600 5 10 1 1 0 0 1
value=V_adc_2
}
N 41200 44100 40100 44100 4
{
T 40200 44100 5 10 1 1 0 0 1
value=V_adc_3
}
N 48700 44600 47200 44600 4
{
T 47500 44600 5 10 1 1 0 0 1
value=CS_DAC
}
N 41200 46600 39700 46600 4
{
T 40300 46600 5 10 1 1 0 0 1
value=CS_RAM
}
N 41200 43100 40100 43100 4
{
T 40100 43100 5 10 1 1 0 0 1
value=SIO1_0/DAC_FS
}
N 41200 43600 40100 43600 4
{
T 40100 43600 5 10 1 1 0 0 1
value=SIO0_1/DAC_IN1
}
N 48300 42600 47200 42600 4
{
T 47300 42600 5 10 1 1 0 0 1
value=SIO1_1
}
N 48300 43100 47200 43100 4
{
T 47300 43100 5 10 1 1 0 0 1
value=SIO1_2
}
N 48300 43600 47200 43600 4
{
T 47300 43600 5 10 1 1 0 0 1
value=SIO0_2/DAC_IN0
}
N 46100 61000 45000 61000 4
{
T 45200 61000 5 10 1 1 0 0 1
value=CS_RAM
}
N 51300 59200 50200 59200 4
{
T 50500 59200 5 10 1 1 0 0 1
value=SIO0_0
}
N 46100 60400 45000 60400 4
{
T 45000 60400 5 10 1 1 0 0 1
value=SIO1_0/DAC_FS
}
C 45900 58800 1 0 0 gnd-1.sym
N 46000 59100 46000 59200 4
N 46000 59200 46100 59200 4
C 50100 61100 1 0 0 3.3V-plus-1.sym
N 50300 60400 50300 61100 4
N 50300 61000 50200 61000 4
N 50300 60400 50200 60400 4
N 51300 59800 50200 59800 4
{
T 50600 59800 5 10 1 1 0 0 1
value=SCK
}
C 53000 58800 1 0 0 23LC1024.sym
{
T 56095 61495 5 10 1 1 0 0 1
refdes=U?
}
N 53000 61000 51900 61000 4
{
T 52100 61000 5 10 1 1 0 0 1
value=CS_RAM
}
C 52800 58800 1 0 0 gnd-1.sym
N 52900 59100 52900 59200 4
N 52900 59200 53000 59200 4
C 57000 61100 1 0 0 3.3V-plus-1.sym
N 57200 60400 57200 61100 4
N 57200 61000 57100 61000 4
N 57200 60400 57100 60400 4
N 58200 59800 57100 59800 4
{
T 57500 59800 5 10 1 1 0 0 1
value=SCK
}
C 49600 55400 1 0 0 23LC1024.sym
{
T 52695 58095 5 10 1 1 0 0 1
refdes=U?
}
N 49600 57600 48500 57600 4
{
T 48700 57600 5 10 1 1 0 0 1
value=CS_RAM
}
C 49400 55400 1 0 0 gnd-1.sym
N 49500 55700 49500 55800 4
N 49500 55800 49600 55800 4
C 53600 57700 1 0 0 3.3V-plus-1.sym
N 53800 57000 53800 57700 4
N 53800 57600 53700 57600 4
N 53800 57000 53700 57000 4
N 54800 56400 53700 56400 4
{
T 54100 56400 5 10 1 1 0 0 1
value=SCK
}
N 58200 59200 57100 59200 4
{
T 57100 59200 5 10 1 1 0 0 1
value=SIO0_1/DAC_IN1
}
N 53000 60400 51900 60400 4
{
T 51600 60400 5 10 1 1 0 0 1
value=SIO1_1/DAC_OUT1
}
N 49600 57000 48500 57000 4
{
T 48300 57000 5 10 1 1 0 0 1
value=SIO1_2/DAC_OUT0
}
N 54800 55800 53700 55800 4
{
T 53800 55800 5 10 1 1 0 0 1
value=SIO0_2/DAC_IN0
}
T 36600 61300 9 24 1 0 0 0 1
Analog Input Buffering
C 31100 58600 1 0 0 capacitor-1.sym
{
T 31300 59300 5 10 0 0 0 0 1
device=CAPACITOR
T 31300 59100 5 10 1 1 0 0 1
refdes=C?
T 31300 59500 5 10 0 0 0 0 1
symversion=0.1
T 31100 58600 5 10 1 1 0 0 1
value=1 uF
}
C 31200 60700 1 0 0 connector4-1.sym
{
T 33000 61600 5 10 0 0 0 0 1
device=CONNECTOR_4
T 31200 62100 5 10 1 1 0 0 1
refdes=CONN?
}
C 36600 57600 1 0 0 MCP6001.sym
{
T 39695 60895 5 10 1 1 0 0 1
refdes=U?
}
C 36600 54600 1 0 0 MCP6001.sym
{
T 39695 57895 5 10 1 1 0 0 1
refdes=U?
}
N 33200 58500 33200 58800 4
N 31100 58800 30200 58800 4
{
T 30400 58800 5 10 1 1 0 0 1
value=Ain_1
}
N 34100 57300 33200 57300 4
{
T 33400 57300 5 10 1 1 0 0 1
value=V_Aref
}
N 33200 57300 33200 57600 4
C 36400 58200 1 0 0 gnd-1.sym
N 36500 58500 36500 58600 4
N 36500 58600 36600 58600 4
N 40700 60400 40800 60400 4
N 40800 60400 40800 60500 4
N 33200 58800 32000 58800 4
C 33100 58500 1 270 0 pot-2.sym
{
T 34000 57700 5 10 0 0 270 0 1
device=VARIABLE_RESISTOR
T 32700 58100 5 10 1 1 0 0 1
refdes=R?
T 34600 57700 5 10 0 0 270 0 1
footprint=none
T 32700 57900 5 10 1 1 0 0 1
value=10k
}
N 34800 58000 33700 58000 4
{
T 33800 58000 5 10 1 1 0 0 1
value=Ain_HPF_1
}
N 36600 59200 35500 59200 4
{
T 35600 59200 5 10 1 1 0 0 1
value=Ain_HPF_1
}
N 36600 59800 36400 59800 4
N 36400 59800 36400 60400 4
N 35500 60400 36600 60400 4
{
T 35500 60400 5 10 1 1 0 0 1
netname=V_adc_1
}
N 40700 59800 42200 59800 4
{
T 41300 59800 5 10 1 1 0 0 1
netname=V_adc_2
}
N 40700 59200 40900 59200 4
N 40900 59200 40900 59800 4
C 31100 56700 1 0 0 capacitor-1.sym
{
T 31300 57400 5 10 0 0 0 0 1
device=CAPACITOR
T 31300 57200 5 10 1 1 0 0 1
refdes=C?
T 31300 57600 5 10 0 0 0 0 1
symversion=0.1
T 31100 56700 5 10 1 1 0 0 1
value=1 uF
}
N 33200 56600 33200 56900 4
N 31100 56900 30200 56900 4
{
T 30400 56900 5 10 1 1 0 0 1
value=Ain_2
}
N 34100 55400 33200 55400 4
{
T 33400 55400 5 10 1 1 0 0 1
value=V_Aref
}
N 33200 55400 33200 55700 4
N 33200 56900 32000 56900 4
C 33100 56600 1 270 0 pot-2.sym
{
T 34000 55800 5 10 0 0 270 0 1
device=VARIABLE_RESISTOR
T 32700 56200 5 10 1 1 0 0 1
refdes=R?
T 34600 55800 5 10 0 0 270 0 1
footprint=none
T 32700 56000 5 10 1 1 0 0 1
value=10k
}
N 34800 56100 33700 56100 4
{
T 33800 56100 5 10 1 1 0 0 1
value=Ain_HPF_2
}
C 31100 54900 1 0 0 capacitor-1.sym
{
T 31300 55600 5 10 0 0 0 0 1
device=CAPACITOR
T 31300 55400 5 10 1 1 0 0 1
refdes=C?
T 31300 55800 5 10 0 0 0 0 1
symversion=0.1
T 31100 54900 5 10 1 1 0 0 1
value=1 uF
}
N 33200 54800 33200 55100 4
N 31100 55100 30200 55100 4
{
T 30400 55100 5 10 1 1 0 0 1
value=Ain_3
}
N 34100 53600 33200 53600 4
{
T 33400 53600 5 10 1 1 0 0 1
value=V_Aref
}
N 33200 53600 33200 53900 4
N 33200 55100 32000 55100 4
C 33100 54800 1 270 0 pot-2.sym
{
T 34000 54000 5 10 0 0 270 0 1
device=VARIABLE_RESISTOR
T 32700 54400 5 10 1 1 0 0 1
refdes=R?
T 34600 54000 5 10 0 0 270 0 1
footprint=none
T 32700 54200 5 10 1 1 0 0 1
value=10k
}
N 34800 54300 33700 54300 4
{
T 33800 54300 5 10 1 1 0 0 1
value=Ain_HPF_3
}
N 41800 58600 40700 58600 4
{
T 40800 58600 5 10 1 1 0 0 1
value=Ain_HPF_2
}
C 40200 46800 1 90 0 resistor-1.sym
{
T 39800 47100 5 10 0 0 90 0 1
device=RESISTOR
T 39900 47400 5 10 1 1 180 0 1
refdes=R?
T 40200 46800 5 10 1 1 0 0 1
value=10k
}
N 40100 46800 40100 46600 4
C 39900 47800 1 0 0 3.3V-plus-1.sym
N 40100 47800 40100 47700 4
C 40600 60500 1 0 0 3.3V-plus-1.sym
N 40700 57400 40800 57400 4
N 40800 57400 40800 57500 4
C 40600 57500 1 0 0 3.3V-plus-1.sym
C 36400 55200 1 0 0 gnd-1.sym
N 36500 55500 36500 55600 4
N 36500 55600 36600 55600 4
C 42100 54500 1 90 0 resistor-1.sym
{
T 41700 54800 5 10 0 0 90 0 1
device=RESISTOR
T 41800 55100 5 10 1 1 180 0 1
refdes=R?
T 42100 54500 5 10 1 1 0 0 1
value=10k
}
C 42100 55700 1 90 0 resistor-1.sym
{
T 41700 56000 5 10 0 0 90 0 1
device=RESISTOR
T 41800 56300 5 10 1 1 180 0 1
refdes=R?
T 42100 55700 5 10 1 1 0 0 1
value=10k
}
C 41300 54500 1 90 0 capacitor-1.sym
{
T 40600 54700 5 10 0 0 90 0 1
device=CAPACITOR
T 40800 55000 5 10 1 1 180 0 1
refdes=C?
T 40400 54700 5 10 0 0 90 0 1
symversion=0.1
T 40900 55200 5 10 1 1 180 0 1
value=100 nF
}
N 41100 54500 41100 54400 4
N 41100 54400 42000 54400 4
N 42000 54400 42000 54500 4
C 41500 54100 1 0 0 gnd-1.sym
N 42000 55400 42000 55700 4
N 42000 55600 40700 55600 4
N 41100 55400 41100 55600 4
C 41800 56700 1 0 0 3.3V-plus-1.sym
N 42000 56700 42000 56600 4
N 41600 56800 40700 56800 4
{
T 40900 56800 5 10 1 1 0 0 1
value=V_Aref
}
N 40700 56200 40800 56200 4
N 40800 56200 40800 56800 4
N 36600 56200 35500 56200 4
{
T 35600 56200 5 10 1 1 0 0 1
value=Ain_HPF_2
}
N 36600 56800 36400 56800 4
N 36400 56800 36400 57400 4
N 35500 57400 36600 57400 4
{
T 35500 57400 5 10 1 1 0 0 1
netname=V_adc_2
}
N 33800 61800 32900 61800 4
{
T 33100 61800 5 10 1 1 0 0 1
value=Ain_1
}
N 33800 61500 32900 61500 4
{
T 33100 61500 5 10 1 1 0 0 1
value=Ain_2
}
N 33800 61200 32900 61200 4
{
T 33100 61200 5 10 1 1 0 0 1
value=Ain_3
}
C 33000 60500 1 0 0 gnd-1.sym
N 33100 60800 33100 60900 4
N 33100 60900 32900 60900 4
C 52400 45700 1 0 0 TLV5616.sym
{
T 55495 48395 5 10 1 1 0 0 1
refdes=U?
}
C 56500 48000 1 0 0 3.3V-plus-1.sym
N 52400 46700 51300 46700 4
{
T 51600 46700 5 10 1 1 0 0 1
value=CS_DAC
}
N 52400 46100 51300 46100 4
{
T 51300 46100 5 10 1 1 0 0 1
value=SIO1_0/DAC_FS
}
N 52400 47300 51300 47300 4
{
T 51700 47300 5 10 1 1 0 0 1
value=SCK
}
N 52400 47900 51300 47900 4
{
T 51400 47900 5 10 1 1 0 0 1
value=SIO0_2/DAC_IN0
}
C 56600 45700 1 0 0 gnd-1.sym
N 56700 46000 56700 46100 4
N 56700 46100 56500 46100 4
N 56500 47900 56700 47900 4
N 56700 47900 56700 48000 4
T 53800 49100 9 24 1 0 0 0 1
DACs
C 59900 45100 1 90 0 pot-1.sym
{
T 59000 45900 5 10 0 0 90 0 1
device=VARIABLE_RESISTOR
T 59500 45900 5 10 1 1 180 0 1
refdes=R?
T 58400 45900 5 10 0 0 90 0 1
footprint=none
T 60000 45600 5 10 1 1 0 0 1
value=10k
}
C 59900 46200 1 90 0 resistor-1.sym
{
T 59500 46500 5 10 0 0 90 0 1
device=RESISTOR
T 60300 46900 5 10 1 1 180 0 1
refdes=R?
T 60000 46500 5 10 1 1 0 0 1
value=10k
}
N 59800 46200 59800 46000 4
C 59600 47200 1 0 0 3.3V-plus-1.sym
N 59800 47200 59800 47100 4
C 59700 43700 1 0 0 gnd-1.sym
C 59900 44100 1 90 0 resistor-1.sym
{
T 59500 44400 5 10 0 0 90 0 1
device=RESISTOR
T 60300 44800 5 10 1 1 180 0 1
refdes=R?
T 60000 44400 5 10 1 1 0 0 1
value=1k
}
N 59800 45000 59800 45100 4
N 59800 44000 59800 44100 4
C 58600 45400 1 270 0 capacitor-2.sym
{
T 59300 45200 5 10 0 0 270 0 1
device=POLARIZED_CAPACITOR
T 59100 45000 5 10 1 1 0 0 1
refdes=C?
T 59500 45200 5 10 0 0 270 0 1
symversion=0.1
T 59100 44800 5 10 1 1 0 0 1
value=1 uF
}
C 58700 44100 1 0 0 gnd-1.sym
N 58800 44400 58800 44500 4
N 58800 45400 58800 45600 4
N 57400 46700 56500 46700 4
{
T 56600 46700 5 10 1 1 0 0 1
value=DAC_VREF
}
N 59300 45600 58400 45600 4
{
T 58300 45600 5 10 1 1 0 0 1
value=DAC_VREF
}
N 57400 47300 56500 47300 4
{
T 56600 47300 5 10 1 1 0 0 1
value=DAC_OUT0
}
C 52400 42600 1 0 0 TLV5616.sym
{
T 55495 45295 5 10 1 1 0 0 1
refdes=U?
}
C 56500 44900 1 0 0 3.3V-plus-1.sym
N 52400 43600 51300 43600 4
{
T 51600 43600 5 10 1 1 0 0 1
value=CS_DAC
}
N 52400 43000 51300 43000 4
{
T 51300 43000 5 10 1 1 0 0 1
value=SIO1_0/DAC_FS
}
N 52400 44200 51300 44200 4
{
T 51700 44200 5 10 1 1 0 0 1
value=SCK
}
C 56600 42600 1 0 0 gnd-1.sym
N 56700 42900 56700 43000 4
N 56700 43000 56500 43000 4
N 56500 44800 56700 44800 4
N 56700 44800 56700 44900 4
N 57400 43600 56500 43600 4
{
T 56600 43600 5 10 1 1 0 0 1
value=DAC_VREF
}
N 57400 44200 56500 44200 4
{
T 56600 44200 5 10 1 1 0 0 1
value=DAC_OUT1
}
C 48500 44800 1 90 0 resistor-1.sym
{
T 48100 45100 5 10 0 0 90 0 1
device=RESISTOR
T 48900 45500 5 10 1 1 180 0 1
refdes=R?
T 48600 45100 5 10 1 1 0 0 1
value=10k
}
N 48400 44800 48400 44600 4
C 48200 45800 1 0 0 3.3V-plus-1.sym
N 48400 45800 48400 45700 4
N 52400 44800 51300 44800 4
{
T 51300 44800 5 10 1 1 0 0 1
value=SIO0_1/DAC_IN1
}
