v 20110115 2
T 44400 46200 9 24 1 0 0 0 1
Microphone Pre-Amplifier
T 44600 45800 9 10 1 0 0 0 1
Vdd should be no greater than 10V (or stuff will break)
C 40300 42100 1 0 0 microphone-1.sym
{
T 40700 43300 5 10 0 0 0 0 1
device=MICROPHONE
T 40700 43100 5 10 1 1 0 0 1
refdes=MIC1
T 40700 43550 5 10 0 0 0 0 1
symversion=0.1
T 40300 42100 5 10 1 1 0 0 1
value=Panasonic WM-64C
}
C 41100 41800 1 0 0 gnd-1.sym
N 41200 42100 41200 42300 4
N 41200 42300 41000 42300 4
N 41000 42900 41900 42900 4
C 41700 43300 1 90 0 resistor-1.sym
{
T 41300 43600 5 10 0 0 90 0 1
device=RESISTOR
T 41200 43800 5 10 1 1 0 0 1
refdes=R1
T 41100 43600 5 10 1 1 0 0 1
value=2.2k
}
N 41600 43300 41600 42900 4
N 43000 42600 43000 42900 4
C 43100 41700 1 90 0 resistor-1.sym
{
T 42700 42000 5 10 0 0 90 0 1
device=RESISTOR
T 43400 42400 5 10 1 1 180 0 1
refdes=R3
T 43200 42000 5 10 1 1 0 0 1
value=10k
}
N 43000 41500 43000 41700 4
C 41400 44300 1 0 0 vdd-1.sym
N 41600 44300 41600 44200 4
C 41900 42700 1 0 0 capacitor-1.sym
{
T 42100 43400 5 10 0 0 0 0 1
device=CAPACITOR
T 42100 43200 5 10 1 1 0 0 1
refdes=C1
T 42100 43600 5 10 0 0 0 0 1
symversion=0.1
T 41900 42700 5 10 1 1 0 0 1
value=1 uF
}
C 44800 44600 1 270 0 resistor-1.sym
{
T 45200 44300 5 10 0 0 270 0 1
device=RESISTOR
T 44500 44000 5 10 1 1 0 0 1
refdes=R2
T 44300 44200 5 10 1 1 0 0 1
value=100k
}
C 44600 43600 1 180 0 resistor-1.sym
{
T 44300 43200 5 10 0 0 180 0 1
device=RESISTOR
T 44400 43300 5 10 1 1 180 0 1
refdes=R4
T 44000 43300 5 10 1 1 180 0 1
value=1k
}
N 42800 42900 45200 42900 4
N 43000 41500 42100 41500 4
{
T 42300 41500 5 10 1 1 0 0 1
netname=Vref_1
}
C 45200 41300 1 0 0 LF353.sym
{
T 48295 44595 5 10 1 1 0 0 1
refdes=U1
}
C 45000 41900 1 0 0 gnd-1.sym
N 45200 42300 45100 42300 4
N 45100 42300 45100 42200 4
N 43700 43500 42800 43500 4
{
T 43000 43500 5 10 1 1 0 0 1
netname=Vref_1
}
C 50600 41300 1 90 0 resistor-1.sym
{
T 50200 41600 5 10 0 0 90 0 1
device=RESISTOR
T 50900 42000 5 10 1 1 180 0 1
refdes=R6
T 50700 41600 5 10 1 1 0 0 1
value=10k
}
C 50600 42400 1 90 0 resistor-1.sym
{
T 50200 42700 5 10 0 0 90 0 1
device=RESISTOR
T 50900 43100 5 10 1 1 180 0 1
refdes=R5
T 50700 42700 5 10 1 1 0 0 1
value=10k
}
C 50300 43400 1 0 0 vdd-1.sym
N 50500 43400 50500 43300 4
C 50400 40900 1 0 0 gnd-1.sym
N 50500 41200 50500 41300 4
N 49300 42300 50500 42300 4
N 50500 42200 50500 42400 4
N 49300 42900 49400 42900 4
N 49400 42900 49400 43500 4
N 50200 43500 49300 43500 4
{
T 49500 43500 5 10 1 1 0 0 1
netname=Vref_1
}
C 50000 41300 1 90 0 capacitor-1.sym
{
T 49300 41500 5 10 0 0 90 0 1
device=CAPACITOR
T 49500 41800 5 10 1 1 180 0 1
refdes=C3
T 49100 41500 5 10 0 0 90 0 1
symversion=0.1
T 49600 42000 5 10 1 1 180 0 1
value=100 nF
}
C 49700 40900 1 0 0 gnd-1.sym
N 49800 41200 49800 41300 4
N 49800 42200 49800 42300 4
N 44600 43500 45200 43500 4
N 44900 43500 44900 43700 4
N 45200 44100 45200 44700 4
N 45200 44700 44100 44700 4
{
T 44200 44700 5 10 1 1 0 0 1
value=Vmid
}
N 44900 44700 44900 44600 4
C 49200 44300 1 0 0 vdd-1.sym
N 49300 44100 49500 44100 4
N 49400 44100 49400 44300 4
C 49500 43900 1 0 0 capacitor-1.sym
{
T 49700 44600 5 10 0 0 0 0 1
device=CAPACITOR
T 49700 44400 5 10 1 1 0 0 1
refdes=C2
T 49700 44800 5 10 0 0 0 0 1
symversion=0.1
T 49500 43900 5 10 1 1 0 0 1
value=0.1uF
}
N 50400 44100 50800 44100 4
C 50700 43800 1 0 0 gnd-1.sym
C 47600 40200 1 0 0 vdd-1.sym
N 47700 40000 47900 40000 4
N 47800 40000 47800 40200 4
C 47900 39800 1 0 0 capacitor-1.sym
{
T 48100 40500 5 10 0 0 0 0 1
device=CAPACITOR
T 48100 40300 5 10 1 1 0 0 1
refdes=C4
T 48100 40700 5 10 0 0 0 0 1
symversion=0.1
T 47900 39800 5 10 1 1 0 0 1
value=0.1uF
}
N 48800 40000 48900 40000 4
C 48800 39700 1 0 0 gnd-1.sym
C 43600 37200 1 0 0 LF353.sym
{
T 46695 40495 5 10 1 1 0 0 1
refdes=U2
}
C 43400 37800 1 0 0 gnd-1.sym
N 43600 38200 43500 38200 4
N 43500 38200 43500 38100 4
N 50500 42300 52800 42300 4
{
T 51800 42300 5 10 1 1 0 0 1
netname=Vdd_over2
}
N 43600 40000 42600 40000 4
{
T 42700 40000 5 10 1 1 0 0 1
netname=Vref_2
}
N 43400 40000 43400 39400 4
N 43400 39400 43600 39400 4
N 43600 38800 42600 38800 4
{
T 42700 38800 5 10 1 1 0 0 1
netname=Vdd_over2
}
C 51200 42200 1 270 0 capacitor-2.sym
{
T 51900 42000 5 10 0 0 270 0 1
device=RESISTOR
T 51700 41800 5 10 1 1 0 0 1
refdes=C5
T 52100 42000 5 10 0 0 270 0 1
symversion=0.1
T 51700 41600 5 10 1 1 0 0 1
value=10uF
}
N 51400 42200 51400 42300 4
C 51300 40900 1 0 0 gnd-1.sym
N 51400 41200 51400 41300 4
N 49200 37000 47000 37000 4
{
T 47100 37000 5 10 1 1 0 0 1
netname=Vref_2
}
C 49100 38300 1 180 0 resistor-1.sym
{
T 48800 37900 5 10 0 0 180 0 1
device=RESISTOR
T 48400 38400 5 10 1 1 0 0 1
refdes=R7
T 49100 38500 5 10 1 1 180 0 1
value=7.5k
}
C 48200 37200 1 90 0 capacitor-1.sym
{
T 47500 37400 5 10 0 0 90 0 1
device=CAPACITOR
T 47700 37700 5 10 1 1 180 0 1
refdes=C6
T 47300 37400 5 10 0 0 90 0 1
symversion=0.1
T 47800 37900 5 10 1 1 180 0 1
value=1 nF
}
N 48000 37000 48000 37200 4
N 48200 38200 47700 38200 4
N 48000 38100 48000 38200 4
N 50900 38200 50200 38200 4
{
T 50300 38200 5 10 1 1 0 0 1
netname=Vmid
}
C 52200 38500 1 90 0 resistor-1.sym
{
T 51800 38800 5 10 0 0 90 0 1
device=RESISTOR
T 52500 39200 5 10 1 1 180 0 1
refdes=R9
T 52300 38800 5 10 1 1 0 0 1
value=10k
}
C 52200 37400 1 90 0 resistor-1.sym
{
T 51800 37700 5 10 0 0 90 0 1
device=RESISTOR
T 52500 38100 5 10 1 1 180 0 1
refdes=R10
T 52300 37700 5 10 1 1 0 0 1
value=1k
}
N 47700 39400 53500 39400 4
N 47700 38800 51600 38800 4
N 51600 38800 51600 38400 4
N 51600 38400 52100 38400 4
N 52100 38300 52100 38500 4
N 52100 37200 51100 37200 4
{
T 51200 37200 5 10 1 1 0 0 1
netname=Vref_2
}
N 52100 37200 52100 37400 4
C 50200 38400 1 180 0 capacitor-1.sym
{
T 50000 37700 5 10 0 0 180 0 1
device=CAPACITOR
T 49900 37900 5 10 1 1 0 0 1
refdes=C7
T 50000 37500 5 10 0 0 180 0 1
symversion=0.1
T 49600 37700 5 10 1 1 0 0 1
value=1 uF
}
N 49100 38200 49300 38200 4
C 49300 37100 1 90 0 resistor-1.sym
{
T 48900 37400 5 10 0 0 90 0 1
device=RESISTOR
T 49000 37800 5 10 1 1 180 0 1
refdes=R8
T 48800 37400 5 10 1 1 0 0 1
value=10k
}
N 49200 38000 49200 38200 4
N 49200 37000 49200 37100 4
